Amazon_final_11_dec
…
#Filter Words that are present in atleast 100 documents and in more than 5 products
words_summary_filter <- words_summary %>%
  filter(reviews >= 100, products >= 5)

#list of Positive Words in this word_summary
words_summary_filter %>%
  arrange(desc(average_stars))

## # A tibble: 336 x 5
##    term      products reviews  uses average_stars
##    <chr>        <int>   <int> <int>         <dbl>
##  1 awesome       6442   13134 13134          4.77
##  2 highly        4957    9001  9001          4.76
##  3 excellent     9744   20378 20378          4.76
##  4 perfect      11250   22769 22769          4.76
##  5 love         11421   31974 31974          4.73
##  6 amazing       4800   10791 10791          4.72
##  7 perfectly     8058   14779 14779          4.71
##  8 thank         3987    5362  5362          4.66
##  9 thanks        4498    6342  6342          4.65
## 10 pleased       3844    6002  6002          4.65
## # ... with 326 more rows

#list of Negative Words in this word_summary
words_summary_filter %>%
  arrange(average_stars)

## # A tibble: 336 x 5
##    term         products reviews  uses average_stars
##    <chr>           <int>   <int> <int>         <dbl>
##  1 stopped          3657    6532  6532          2.07
##  2 return           4925    7910  7910          2.09
##  3 broke            3897    6587  6587          2.38
##  4 disappointed     4131    6640  6640          2.56
##  5 weeks            3941    6497  6497          2.87
##  6 month            3584    6019  6019          2.89
##  7 months           6487   13634 13634          2.96
##  8 within           3419    5277  5277          2.98
##  9 week             3646    6009  6009          3.07
## 10 piece            3866    5828  5828          3.08
## # ... with 326 more rows

#List of Positive and Negative words as per AFINN Lexicon
AFINN <- sentiments %>%
  filter(lexicon == "AFINN") %>%
  select(term = word, afinn_score = score)

words_afinn <- words_summary_filter %>%
  inner_join(AFINN)

## Joining, by = "term"

words_afinn

## # A tibble: 38 x 6
##    term         products reviews  uses average_stars afinn_score
##    <chr>           <int>   <int> <int>         <dbl>       <int>
##  1 amazing          4800   10791 10791          4.72           4
##  2 awesome          6442   13134 13134          4.77           4
##  3 bad              6002   10277 10277          3.14          -3
##  4 best             8228   19401 19401          4.50           3
##  5 better          11381   28725 28725          3.97           2
##  6 big              5390    9677  9677          4.03           1
##  7 broke            3897    6587  6587          2.38          -1
##  8 clear            5817   13427 13427          4.40           1
##  9 comfortable      3622   12064 12064          4.35           2
## 10 disappointed     4131    6640  6640          2.56          -2
## # ... with 28 more rows
…
